{
  "$schema" : "https://json-schema.org/draft/2019-09/schema",
  "type" : "object",
  "properties" : {
    "description" : {
      "type" : [ "string", "null" ]
    },
    "entityTypeId" : {
      "type" : "integer"
    },
    "id" : {
      "type" : "integer"
    },
    "imported" : {
      "type" : "boolean"
    },
    "usedForNotification" : {
      "type" : "boolean"
    },
    "value" : {
      "type" : [ "string", "null" ]
    }
  }
}