{
  "$schema" : "https://json-schema.org/draft/2019-09/schema",
  "type" : "object",
  "properties" : {
    "id" : {
      "type" : "integer"
    },
    "key" : {
      "type" : [ "string", "null" ]
    },
    "type" : {
      "type" : "integer"
    },
    "value" : { }
  }
}