{
  "$schema" : "https://json-schema.org/draft/2019-09/schema",
  "type" : "object",
  "properties" : {
    "message" : {
      "type" : [ "string", "null" ]
    },
    "type" : {
      "type" : [ "string", "null" ]
    }
  }
}