{
  "$schema" : "https://json-schema.org/draft/2019-09/schema",
  "$defs" : {
    "AdditionalProperty" : {
      "type" : "object",
      "properties" : {
        "description" : {
          "type" : [ "string", "null" ]
        },
        "following" : {
          "type" : [ "boolean", "null" ]
        },
        "id" : {
          "type" : "integer"
        },
        "name" : {
          "type" : [ "string", "null" ]
        },
        "propertyType" : {
          "type" : [ "integer", "null" ]
        },
        "validBeginInSeconds" : {
          "type" : [ "integer", "null" ]
        },
        "validEndInSeconds" : {
          "type" : [ "integer", "null" ]
        }
      }
    },
    "Address" : {
      "type" : "object",
      "properties" : {
        "city" : {
          "type" : [ "string", "null" ]
        },
        "country" : {
          "type" : [ "string", "null" ]
        },
        "houseNumber" : {
          "type" : [ "string", "null" ]
        },
        "id" : {
          "type" : "integer"
        },
        "imported" : {
          "type" : "boolean"
        },
        "postalCode" : {
          "type" : [ "string", "null" ]
        },
        "street" : {
          "type" : [ "string", "null" ]
        }
      }
    },
    "Attachment" : {
      "type" : "object",
      "properties" : {
        "casId" : {
          "type" : [ "string", "null" ]
        },
        "casIdImgLarge" : {
          "type" : [ "string", "null" ]
        },
        "casIdImgSmall" : {
          "type" : [ "string", "null" ]
        },
        "casIdPdf" : {
          "type" : [ "string", "null" ]
        },
        "casIdThumbnail" : {
          "type" : [ "string", "null" ]
        },
        "createTimeInSeconds" : {
          "type" : "integer"
        },
        "displayName" : {
          "type" : [ "string", "null" ]
        },
        "fileSize" : {
          "type" : [ "integer", "null" ]
        },
        "fileSizeImgLarge" : {
          "type" : [ "integer", "null" ]
        },
        "fileSizeImgSmall" : {
          "type" : [ "integer", "null" ]
        },
        "fileSizePdf" : {
          "type" : [ "integer", "null" ]
        },
        "fileSizeThumbnail" : {
          "type" : [ "integer", "null" ]
        },
        "id" : {
          "type" : "integer"
        },
        "mimeType" : {
          "type" : [ "string", "null" ]
        },
        "name" : {
          "type" : [ "string", "null" ]
        },
        "status" : {
          "type" : "integer"
        }
      }
    },
    "Category" : {
      "type" : "object",
      "properties" : {
        "casId" : {
          "type" : [ "string", "null" ]
        },
        "casIdThumbnail" : {
          "type" : [ "string", "null" ]
        },
        "description" : {
          "type" : [ "string", "null" ]
        },
        "fileSize" : {
          "type" : [ "integer", "null" ]
        },
        "fileSizeThumbnail" : {
          "type" : [ "integer", "null" ]
        },
        "following" : {
          "type" : [ "boolean", "null" ]
        },
        "id" : {
          "type" : "integer"
        },
        "name" : {
          "type" : [ "string", "null" ]
        },
        "quick" : {
          "type" : "boolean"
        },
        "typeId" : {
          "type" : "integer"
        },
        "typeName" : {
          "type" : [ "string", "null" ]
        },
        "typePersonal" : {
          "type" : "boolean"
        },
        "usageCount" : {
          "type" : [ "integer", "null" ]
        }
      }
    },
    "Client" : {
      "type" : "object",
      "properties" : {
        "casId" : {
          "type" : [ "string", "null" ]
        },
        "casIdImgLarge" : {
          "type" : [ "string", "null" ]
        },
        "casIdImgSmall" : {
          "type" : [ "string", "null" ]
        },
        "casIdThumbnail" : {
          "type" : [ "string", "null" ]
        },
        "clientPreferences" : {
          "$ref" : "#/$defs/PreferenceMapContainer-nullable"
        },
        "companyInfoItems" : {
          "type" : [ "array", "null" ],
          "items" : {
            "$ref" : "#/$defs/CompanyInfoItem"
          }
        },
        "fileSize" : {
          "type" : [ "integer", "null" ]
        },
        "fileSizeImgLarge" : {
          "type" : [ "integer", "null" ]
        },
        "fileSizeImgSmall" : {
          "type" : [ "integer", "null" ]
        },
        "fileSizeThumbnail" : {
          "type" : [ "integer", "null" ]
        },
        "id" : {
          "type" : "integer"
        },
        "name" : {
          "type" : [ "string", "null" ]
        },
        "skinColourButton" : {
          "type" : [ "string", "null" ]
        },
        "skinColourLabel" : {
          "type" : [ "string", "null" ]
        },
        "skinColourNotification" : {
          "type" : [ "string", "null" ]
        }
      }
    },
    "Comment" : {
      "type" : "object",
      "properties" : {
        "createTimeInSeconds" : {
          "type" : "integer"
        },
        "documentId" : {
          "type" : "integer"
        },
        "documentLanguageVersionId" : {
          "type" : "integer"
        },
        "documentLanguageVersionLanguageKey" : {
          "type" : [ "string", "null" ]
        },
        "documentLanguageVersionTitle" : {
          "type" : [ "string", "null" ]
        },
        "documentLanguageVersionVersion" : {
          "type" : "integer"
        },
        "id" : {
          "type" : "integer"
        },
        "mentionedAccountIds" : {
          "type" : [ "array", "null" ],
          "items" : {
            "type" : "integer"
          }
        },
        "person" : {
          "$ref" : "#/$defs/Person-nullable"
        },
        "text" : {
          "type" : [ "string", "null" ]
        },
        "textHtml" : {
          "type" : [ "string", "null" ]
        }
      }
    },
    "CommunicationData" : {
      "type" : "object",
      "properties" : {
        "description" : {
          "type" : [ "string", "null" ]
        },
        "entityTypeId" : {
          "type" : "integer"
        },
        "id" : {
          "type" : "integer"
        },
        "imported" : {
          "type" : "boolean"
        },
        "usedForNotification" : {
          "type" : "boolean"
        },
        "value" : {
          "type" : [ "string", "null" ]
        }
      }
    },
    "CompanyInfoItem" : {
      "type" : "object",
      "properties" : {
        "key" : {
          "type" : [ "string", "null" ]
        },
        "value" : {
          "type" : [ "string", "null" ]
        }
      }
    },
    "ContactImage" : {
      "type" : "object",
      "properties" : {
        "active" : {
          "type" : "boolean"
        },
        "casId" : {
          "type" : [ "string", "null" ]
        },
        "casIdThumbnail" : {
          "type" : [ "string", "null" ]
        },
        "cobot" : {
          "type" : "boolean"
        },
        "createTimeInSeconds" : {
          "type" : "integer"
        },
        "external" : {
          "type" : "boolean"
        },
        "externalImgUrl" : {
          "type" : [ "string", "null" ]
        },
        "fileSize" : {
          "type" : [ "integer", "null" ]
        },
        "fileSizeThumbnail" : {
          "type" : [ "integer", "null" ]
        },
        "google" : {
          "type" : "boolean"
        },
        "gravatar" : {
          "type" : "boolean"
        },
        "id" : {
          "type" : "integer"
        },
        "internal" : {
          "type" : "boolean"
        },
        "mimeType" : {
          "type" : [ "string", "null" ]
        },
        "name" : {
          "type" : [ "string", "null" ]
        },
        "reference" : {
          "type" : [ "string", "null" ]
        }
      }
    },
    "ContactImage-nullable" : {
      "anyOf" : [ {
        "type" : "null"
      }, {
        "$ref" : "#/$defs/ContactImage"
      } ]
    },
    "Document-nullable" : {
      "type" : [ "object", "null" ],
      "properties" : {
        "additionalProperties" : {
          "type" : [ "array", "null" ],
          "items" : {
            "$ref" : "#/$defs/AdditionalProperty"
          }
        },
        "archived" : {
          "type" : "boolean"
        },
        "archivedBeginInSeconds" : {
          "type" : [ "integer", "null" ]
        },
        "attachments" : {
          "type" : [ "array", "null" ],
          "items" : {
            "$ref" : "#/$defs/Attachment"
          }
        },
        "bio" : {
          "type" : "boolean"
        },
        "categories" : {
          "type" : [ "array", "null" ],
          "items" : {
            "$ref" : "#/$defs/Category"
          }
        },
        "clickCount" : {
          "type" : "integer"
        },
        "comments" : {
          "type" : [ "array", "null" ],
          "items" : {
            "$ref" : "#/$defs/Comment"
          }
        },
        "countOfLanguageVersions" : {
          "type" : "integer"
        },
        "createTimeInSeconds" : {
          "type" : [ "integer", "null" ]
        },
        "documentAttachments" : {
          "type" : [ "array", "null" ],
          "items" : {
            "$ref" : "#/$defs/Attachment"
          }
        },
        "downloadCount" : {
          "type" : "integer"
        },
        "editorType" : {
          "type" : "integer"
        },
        "extensionValues" : {
          "type" : [ "array", "null" ],
          "items" : {
            "$ref" : "#/$defs/ExtensionValue"
          }
        },
        "firstReadTimesInSeconds" : {
          "$ref" : "#/$defs/Map(Long,Long)-nullable"
        },
        "followers" : {
          "type" : [ "array", "null" ],
          "items" : {
            "$ref" : "#/$defs/Person"
          }
        },
        "id" : {
          "type" : "integer"
        },
        "landscape" : {
          "type" : "boolean"
        },
        "languageAttachments" : {
          "type" : [ "array", "null" ],
          "items" : {
            "$ref" : "#/$defs/Attachment"
          }
        },
        "languageVersionAbstract" : {
          "type" : [ "string", "null" ]
        },
        "languageVersionCasId" : {
          "type" : [ "string", "null" ]
        },
        "languageVersionCasIdPdf" : {
          "type" : [ "string", "null" ]
        },
        "languageVersionCasIdThumbnail" : {
          "type" : [ "string", "null" ]
        },
        "languageVersionCasMd5" : {
          "type" : [ "string", "null" ]
        },
        "languageVersionCreateTimeInSeconds" : {
          "type" : [ "integer", "null" ]
        },
        "languageVersionCurrentlyInProcessing" : {
          "type" : "boolean"
        },
        "languageVersionCustomVersionString" : {
          "type" : [ "string", "null" ]
        },
        "languageVersionFileSize" : {
          "type" : [ "integer", "null" ]
        },
        "languageVersionFileSizePdf" : {
          "type" : [ "integer", "null" ]
        },
        "languageVersionFileSizeThumbnail" : {
          "type" : [ "integer", "null" ]
        },
        "languageVersionId" : {
          "type" : "integer"
        },
        "languageVersionLanguageId" : {
          "type" : "integer"
        },
        "languageVersionLanguageKey" : {
          "type" : [ "string", "null" ]
        },
        "languageVersionLastChangeInSeconds" : {
          "type" : [ "integer", "null" ]
        },
        "languageVersionMimeType" : {
          "type" : [ "string", "null" ]
        },
        "languageVersionNotifyOnReview" : {
          "type" : "boolean"
        },
        "languageVersionReady" : {
          "type" : "boolean"
        },
        "languageVersionReviewRequested" : {
          "type" : "boolean"
        },
        "languageVersionReviewed" : {
          "type" : "boolean"
        },
        "languageVersionStatus" : {
          "type" : "integer"
        },
        "languageVersionTitle" : {
          "type" : [ "string", "null" ]
        },
        "languageVersionValidBeginInSeconds" : {
          "type" : [ "integer", "null" ]
        },
        "languageVersionValidEndInSeconds" : {
          "type" : [ "integer", "null" ]
        },
        "languageVersionVersion" : {
          "type" : "integer"
        },
        "languageVersionVersionComment" : {
          "type" : [ "string", "null" ]
        },
        "languageVersionVersionCommentHtml" : {
          "type" : [ "string", "null" ]
        },
        "lastReadTimesInSeconds" : {
          "$ref" : "#/$defs/Map(Long,Long)-nullable"
        },
        "lastWriteTimesInSeconds" : {
          "$ref" : "#/$defs/Map(Long,Long)-nullable"
        },
        "markedAsHelpfulBy" : {
          "type" : [ "array", "null" ],
          "items" : {
            "$ref" : "#/$defs/Person"
          }
        },
        "mentionedInCommentUnread" : {
          "type" : "boolean"
        },
        "partialUpdateAdditionalProperties" : {
          "type" : "boolean"
        },
        "partialUpdateArchived" : {
          "type" : "boolean"
        },
        "partialUpdateCategories" : {
          "type" : "boolean"
        },
        "partialUpdateComments" : {
          "type" : "boolean"
        },
        "partialUpdateFollowers" : {
          "type" : "boolean"
        },
        "partialUpdateMarkedHelpfulBy" : {
          "type" : "boolean"
        },
        "partialUpdateReadTime" : {
          "type" : "boolean"
        },
        "partialUpdateRemoved" : {
          "type" : "boolean"
        },
        "partialUpdateResponsibles" : {
          "type" : "boolean"
        },
        "partialUpdateRoleRights" : {
          "type" : "boolean"
        },
        "partialUpdateSnapFlag" : {
          "type" : "boolean"
        },
        "readConfirmationActive" : {
          "type" : "boolean"
        },
        "readConfirmationTimesInSeconds" : {
          "$ref" : "#/$defs/Map(Long,Long)-nullable"
        },
        "relatedDocumentIds" : {
          "type" : [ "array", "null" ],
          "items" : {
            "type" : "integer"
          }
        },
        "removeTimeInSeconds" : {
          "type" : [ "integer", "null" ]
        },
        "removed" : {
          "type" : "boolean"
        },
        "responsibles" : {
          "type" : [ "array", "null" ],
          "items" : {
            "$ref" : "#/$defs/Person"
          }
        },
        "reviewRight" : {
          "type" : "boolean"
        },
        "reviewUntilInSeconds" : {
          "type" : [ "integer", "null" ]
        },
        "roleRelationReadConfirmationRequested" : {
          "type" : "boolean"
        },
        "roleRelationType" : {
          "type" : "integer"
        },
        "roleRights" : {
          "type" : [ "array", "null" ],
          "items" : {
            "$ref" : "#/$defs/RoleRight"
          }
        },
        "snap" : {
          "type" : "boolean"
        },
        "successorId" : {
          "type" : [ "integer", "null" ]
        },
        "sumRating" : {
          "type" : [ "integer", "null" ]
        },
        "template" : {
          "type" : "boolean"
        },
        "valid" : {
          "type" : "boolean"
        },
        "validBeginInSeconds" : {
          "type" : [ "integer", "null" ]
        },
        "validEndInSeconds" : {
          "type" : [ "integer", "null" ]
        }
      }
    },
    "ExtensionValue" : {
      "type" : "object",
      "properties" : {
        "id" : {
          "type" : "integer"
        },
        "key" : {
          "type" : [ "string", "null" ]
        },
        "type" : {
          "type" : "integer"
        },
        "value" : { }
      }
    },
    "Map(Long,Long)-nullable" : {
      "type" : [ "object", "null" ]
    },
    "Map(String,Object)-nullable" : {
      "type" : [ "object", "null" ]
    },
    "Map(String,String)-nullable" : {
      "type" : [ "object", "null" ]
    },
    "Permissions-nullable" : {
      "type" : [ "object", "null" ],
      "properties" : {
        "administrateAll" : {
          "type" : "boolean"
        },
        "bitmask" : {
          "type" : "integer"
        },
        "comment" : {
          "type" : "boolean"
        },
        "createSnap" : {
          "type" : "boolean"
        },
        "downloadPdf" : {
          "type" : "boolean"
        },
        "editAdditionalProperty" : {
          "type" : "boolean"
        },
        "editCategory" : {
          "type" : "boolean"
        },
        "editDocument" : {
          "type" : "boolean"
        },
        "editDocumentTemplate" : {
          "type" : "boolean"
        },
        "editGallery" : {
          "type" : "boolean"
        },
        "editGlobalSavedSearch" : {
          "type" : "boolean"
        },
        "editPerson" : {
          "type" : "boolean"
        },
        "editRole" : {
          "type" : "boolean"
        },
        "editTask" : {
          "type" : "boolean"
        },
        "immediateReview" : {
          "type" : "boolean"
        },
        "publishUnreviewed" : {
          "type" : "boolean"
        },
        "showReadConfirmation" : {
          "type" : "boolean"
        },
        "showTrash" : {
          "type" : "boolean"
        },
        "viewArchive" : {
          "type" : "boolean"
        },
        "viewStatistic" : {
          "type" : "boolean"
        }
      }
    },
    "Person" : {
      "type" : "object",
      "properties" : {
        "accountCreateTimeInSeconds" : {
          "type" : [ "integer", "null" ]
        },
        "accountId" : {
          "type" : "integer"
        },
        "accountLastLoginInSeconds" : {
          "type" : [ "integer", "null" ]
        },
        "accountLogin" : {
          "type" : [ "string", "null" ]
        },
        "active" : {
          "type" : "boolean"
        },
        "addresses" : {
          "type" : [ "array", "null" ],
          "items" : {
            "$ref" : "#/$defs/Address"
          }
        },
        "bioDocument" : {
          "$ref" : "#/$defs/Document-nullable"
        },
        "birthdayInSeconds" : {
          "type" : [ "integer", "null" ]
        },
        "clients" : {
          "type" : [ "array", "null" ],
          "items" : {
            "$ref" : "#/$defs/Client"
          }
        },
        "communicationData" : {
          "type" : [ "array", "null" ],
          "items" : {
            "$ref" : "#/$defs/CommunicationData"
          }
        },
        "contactId" : {
          "type" : "integer"
        },
        "contactImage" : {
          "$ref" : "#/$defs/ContactImage-nullable"
        },
        "contactImages" : {
          "type" : [ "array", "null" ],
          "items" : {
            "$ref" : "#/$defs/ContactImage"
          }
        },
        "demo" : {
          "type" : "boolean"
        },
        "firstName" : {
          "type" : [ "string", "null" ]
        },
        "gender" : {
          "type" : [ "integer", "null" ]
        },
        "instanceOwner" : {
          "type" : "boolean"
        },
        "lastName" : {
          "type" : [ "string", "null" ]
        },
        "limited" : {
          "type" : "boolean"
        },
        "partialUpdateActive" : {
          "type" : "boolean"
        },
        "partialUpdateDemo" : {
          "type" : "boolean"
        },
        "partialUpdateInstanceOwner" : {
          "type" : "boolean"
        },
        "partialUpdateLastLogin" : {
          "type" : "boolean"
        },
        "partialUpdateLimited" : {
          "type" : "boolean"
        },
        "partialUpdateRoles" : {
          "type" : "boolean"
        },
        "permissions" : {
          "$ref" : "#/$defs/Permissions-nullable"
        },
        "position" : {
          "type" : [ "string", "null" ]
        },
        "roleClientGate" : {
          "$ref" : "#/$defs/Role-nullable"
        },
        "rolePersonal" : {
          "$ref" : "#/$defs/Role-nullable"
        },
        "rolesContent" : {
          "type" : [ "array", "null" ],
          "items" : {
            "$ref" : "#/$defs/Role"
          }
        },
        "rolesFunctional" : {
          "type" : [ "array", "null" ],
          "items" : {
            "$ref" : "#/$defs/Role"
          }
        },
        "rolesReview" : {
          "type" : [ "array", "null" ],
          "items" : {
            "$ref" : "#/$defs/Role"
          }
        },
        "superiorAccountId" : {
          "type" : [ "integer", "null" ]
        },
        "systemAccount" : {
          "type" : "boolean"
        }
      }
    },
    "Person-nullable" : {
      "anyOf" : [ {
        "type" : "null"
      }, {
        "$ref" : "#/$defs/Person"
      } ]
    },
    "PreferenceMapContainer-nullable" : {
      "type" : [ "object", "null" ],
      "properties" : {
        "preferenceDescriptions" : {
          "$ref" : "#/$defs/Map(String,String)-nullable"
        },
        "preferences" : {
          "$ref" : "#/$defs/Map(String,Object)-nullable"
        }
      }
    },
    "Role" : {
      "type" : "object",
      "properties" : {
        "bitmask" : {
          "type" : "integer"
        },
        "clientId" : {
          "type" : "integer"
        },
        "description" : {
          "type" : [ "string", "null" ]
        },
        "entityTypeId" : {
          "type" : "integer"
        },
        "id" : {
          "type" : "integer"
        },
        "initiallyAssignedToAccount" : {
          "type" : "boolean"
        },
        "initiallyAssignedTypeToDocument" : {
          "type" : "integer"
        },
        "name" : {
          "type" : [ "string", "null" ]
        },
        "notRemovable" : {
          "type" : "boolean"
        },
        "permissions" : {
          "$ref" : "#/$defs/Permissions-nullable"
        },
        "personalRolePerson" : {
          "$ref" : "#/$defs/Person-nullable"
        }
      }
    },
    "Role-nullable" : {
      "anyOf" : [ {
        "type" : "null"
      }, {
        "$ref" : "#/$defs/Role"
      } ]
    },
    "RoleRight" : {
      "type" : "object",
      "properties" : {
        "readConfirmationRequested" : {
          "type" : "boolean"
        },
        "role" : {
          "$ref" : "#/$defs/Role-nullable"
        },
        "type" : {
          "type" : "integer"
        }
      }
    }
  },
  "type" : "object",
  "properties" : {
    "acceptedAccount" : {
      "$ref" : "#/$defs/Person-nullable"
    },
    "assignedRole" : {
      "$ref" : "#/$defs/Role-nullable"
    },
    "authorAccount" : {
      "$ref" : "#/$defs/Person-nullable"
    },
    "creationDateInSeconds" : {
      "type" : "integer"
    },
    "description" : {
      "type" : [ "string", "null" ]
    },
    "documentId" : {
      "type" : [ "integer", "null" ]
    },
    "documentLanguageVersionId" : {
      "type" : [ "integer", "null" ]
    },
    "documentLanguageVersionLanguageKey" : {
      "type" : [ "string", "null" ]
    },
    "documentLanguageVersionTitle" : {
      "type" : [ "string", "null" ]
    },
    "documentLanguageVersionVersion" : {
      "type" : [ "integer", "null" ]
    },
    "dueDateInSeconds" : {
      "type" : [ "integer", "null" ]
    },
    "id" : {
      "type" : "integer"
    },
    "message" : {
      "type" : [ "string", "null" ]
    },
    "overdue" : {
      "type" : "boolean"
    },
    "resubmissionDateInSeconds" : {
      "type" : [ "integer", "null" ]
    },
    "resubmissionTimePeriod" : {
      "type" : [ "integer", "null" ]
    },
    "resubmissionTimeUnit" : {
      "type" : [ "integer", "null" ]
    },
    "snap" : {
      "type" : "boolean"
    },
    "taskStatusId" : {
      "type" : "integer"
    }
  }
}