{
  "id" : 34,
  "name" : "Name",
  "description" : "Description",
  "quick" : true,
  "typeName" : "TypeName",
  "typeId" : 34,
  "typePersonal" : true,
  "casId" : "CasId",
  "casIdThumbnail" : "CasIdThumbnail",
  "fileSize" : 34,
  "fileSizeThumbnail" : 34,
  "usageCount" : 34,
  "following" : true,
  "jsonType" : "Category"
}