{
  "id" : 34,
  "name" : "Name",
  "casId" : "CasId",
  "casIdImgSmall" : "CasIdImgSmall",
  "casIdImgLarge" : "CasIdImgLarge",
  "casIdThumbnail" : "CasIdThumbnail",
  "fileSize" : 34,
  "fileSizeImgSmall" : 34,
  "fileSizeImgLarge" : 34,
  "fileSizeThumbnail" : 34,
  "skinColourButton" : "SkinColourButton",
  "skinColourNotification" : "SkinColourNotification",
  "skinColourLabel" : "SkinColourLabel",
  "clientPreferences" : {
    "preferences" : { },
    "preferenceDescriptions" : { }
  },
  "companyInfoItems" : [ ],
  "jsonType" : "Client"
}