{
  "id" : 34,
  "clientId" : 34,
  "entityTypeId" : 34,
  "name" : "Name",
  "description" : "Description",
  "bitmask" : 34,
  "notRemovable" : true,
  "initiallyAssignedToAccount" : true,
  "initiallyAssignedTypeToDocument" : 34,
  "permissions" : {
    "bitmask" : 34,
    "administrateAll" : false,
    "editPerson" : true,
    "editDocument" : false,
    "editDocumentTemplate" : false,
    "editRole" : false,
    "editCategory" : true,
    "editTask" : false,
    "comment" : false,
    "viewArchive" : false,
    "viewStatistic" : false,
    "showTrash" : false,
    "editGallery" : false,
    "immediateReview" : false,
    "publishUnreviewed" : false,
    "editAdditionalProperty" : false,
    "editGlobalSavedSearch" : false,
    "createSnap" : false,
    "showReadConfirmation" : false,
    "downloadPdf" : false
  },
  "personalRolePerson" : null,
  "jsonType" : "Role"
}